0.0000000000,6778.0000000000,0.0000000000,0.0000000000,0.0000000000,6778.0000000000,0.0000000000
0.0006427615,6764.7594007389,425.5969583057,425876.1850411395,1160.8329869360,6778.1341474483,3.5999525165
0.0012855229,6724.6892183263,849.5143828243,851752.5296447227,1160.8901083842,6778.1354198407,7.1999041742
0.0019925605,6649.9702601325,1311.8874365949,1320216.3812978822,1160.9528056644,6778.1378790153,11.1598488395
0.0026995981,6543.4997687759,1767.9966381793,1788680.0254420391,1161.0153615326,6778.1414367498,15.1197899925
0.0033423596,6419.5803795575,2175.3725344445,2214555.8220556532,1161.0721094944,6778.1456102105,18.7197323745
0.0039851210,6270.3275137502,2574.1637975523,2640431.3291949658,1161.1287442781,6778.1506612291,22.3196698590
0.0046278825,6096.3302204780,2962.7967073795,3066306.4923286485,1161.1852683350,6778.1565699216,25.9196015242
0.0052706439,5898.2752034096,3339.7376428094,3492181.2582816384,1161.2416846193,6778.1633130188,29.5195264711
0.0059134054,5676.9441090672,3703.4991350800,3918055.5754450364,1161.2979964092,6778.1708639582,33.1194438272
0.0065561668,5433.2104402872,4052.6457387518,4343929.3939797990,1161.3542074785,6778.1791929890,36.7193527499
0.0071989283,5168.0361070450,4385.7996971025,4769802.6660134476,1161.4103219621,6778.1882672898,40.3192524299
0.0078416898,4882.4676282943,4701.6463795743,5195675.3458290156,1161.4663443677,6778.1980510978,43.9191420943
0.0084844512,4577.6319998466,4998.9394698035,5621547.3900454687,1161.5222796164,6778.2085058501,47.5190210098
0.0091272127,4254.7322446401,5276.5058837491,6047418.7577889012,1161.5781328566,6778.2195903363,51.1188884853
0.0097699741,3915.0426629964,5533.2503985118,6473289.4108538413,1161.6339097284,6778.2312608610,54.7187438751
0.0104127356,3559.9038016527,5768.1599735767,6899159.3138539968,1161.6896160580,6778.2434714160,58.3185865809
0.0110554970,3190.7171614626,5980.3077474369,7325028.4343618900,1161.7452579662,6778.2561738626,61.9184160546
0.0116982585,2808.9396646905,6168.8566938381,7750896.7430367861,1161.8008418381,6778.2693181212,65.5182318001
0.0123410199,2416.0779037703,6333.0629232334,8176764.2137404503,1161.8563742898,6778.2828523691,69.1180333757
0.0129837814,2013.6821942613,6472.2786164434,8602630.8236402534,1161.9118621424,6778.2967232451,72.7178203955
0.0136265429,1603.3404555004,6585.9545789713,9028496.5532992184,1161.9673123807,6778.3108760603,76.3175925308
0.0142693043,1186.6719431287,6673.6424059240,9454361.3867526688,1162.0227321796,6778.3252550136,79.9173495118
0.0149120658,765.3208582513,6734.9962490302,9880225.3115711734,1162.0781287588,6778.3398034124,83.5170911286
0.0155548272,340.9498584677,6769.7741788208,10306088.3189095315,1162.1335094981,6778.3544638959,87.1168172316
0.0161975887,-84.7665036012,6777.8391366350,10731950.4035416078,1162.1888817772,6778.3691786619,90.7165277325
0.0168403501,-510.1483883889,6759.1594727374,11157811.5638808738,1162.2442530803,6778.3838896946,94.3162226046
0.0174831116,-933.5172979782,6713.8090684655,11583671.8019866198,1162.2996308431,6778.3985389939,97.9159018828
0.0181258730,-1353.2026990581,6641.9670419682,12009531.1235557478,1162.3550225124,6778.4130688038,101.5155656635
0.0187686345,-1767.5486141120,6543.9170387401,12435389.5379002094,1162.4104354493,6778.4274218407,105.1152141041
0.0194113960,-2174.9201548387,6420.0461097932,12861247.0579102151,1162.4658769257,6778.4415415193,108.7148474226
0.0200541574,-2573.7099720395,6270.8431819336,13287103.7000032831,1162.5213541240,6778.4553721757,112.3144658966
0.0206969189,-2962.3445965405,6096.8971262173,13712959.4840594009,1162.5768740475,6778.4688592874,115.9140698622
0.0213396803,-3339.2906461522,5898.8944322445,14138814.4333425220,1162.6324436031,6778.4819496878,119.5136597128
0.0219824418,-3703.0608742034,5677.6164975004,14564668.5744087063,1162.6880694181,6778.4945917766,123.1132358973
0.0226252032,-4052.2200358147,5433.9365424692,14990521.9370012935,1162.7437579557,6778.5067357228,126.7127989186
0.0232679647,-4385.3905487981,5168.8161637167,15416374.5539334826,1162.7995154262,6778.5183336617,130.3123493314
0.0239750023,-4731.8443949862,4853.6710941679,15884811.6140773315,1162.8609353043,6778.5304062697,134.2718409454
0.0246820399,-5055.7090839973,4515.3552805544,16353247.8667827491,1162.9224531800,6778.5417053849,138.2313189061
0.0253890775,-5355.4386517988,4155.4839026250,16821683.3673912212,1162.9840761051,6778.5521771360,142.1907841488
0.0260961151,-5629.6023569739,3775.7750189568,17290118.1748319790,1163.0458105318,6778.5617716020,146.1502376699
0.0268031527,-5876.8915070238,3378.0413653573,17758552.3513406366,1163.1076624729,6778.5704430502,150.1096805213
0.0275101903,-6096.1257021302,2964.1817018499,18226985.9621620588,1163.1696373224,6778.5781501547,154.0691138060
0.0282172279,-6286.2584666487,2536.1717495274,18695419.0752389356,1163.2317398898,6778.5848561933,158.0285386726
0.0289242655,-6446.3822415229,2096.0547605076,19163851.7608874179,1163.2939744033,6778.5905292228,161.9879563096
0.0296313031,-6575.7327138559,1645.9317659638,19632284.0914614536,1163.3563444316,6778.5951422314,165.9473679402
0.0303383407,-6673.6924630289,1187.9515487329,20100716.1410074569,1163.4188529179,6778.5986732676,169.9067748161
0.0310453783,-6739.7939060172,724.3003883106,20569147.9849108197,1163.4815021604,6778.6011055448,173.8661782115
0.0317524159,-6773.7215278857,257.1916271206,21037579.6995361000,1163.5442937277,6778.6024275217,177.8255794174
0.0324594535,-6775.3133868498,-211.1448922043,21506011.3618625067,1163.6072285250,6778.6026329569,-178.2150202650
0.0331664911,-6744.5618867418,-678.4734681817,21974443.0491165183,1163.6703068428,6778.6017209389,-174.2556195302
0.0338735287,-6681.6138132067,-1142.5632097596,22442874.8384032063,1163.7335282601,6778.5996958908,-170.2962170750
0.0345805663,-6586.7696334563,-1601.1986826621,22911306.8063382506,1163.7968915850,6778.5965675486,-166.3368116041
0.0352876039,-6460.4820629139,-2052.1904820581,23379739.0286822394,1163.8603950515,6778.5923509149,-162.3774018369
0.0359946415,-6303.3539055720,-2493.3856811568,23848171.5799790137,1163.9240361601,6778.5870661877,-158.4179865134
0.0367016791,-6116.1351783403,-2922.6781059249,24316604.5331998914,1163.9878118336,6778.5807386638,-154.4585643999
0.0374087167,-5899.7195330694,-3338.0183869429,24785037.9593953378,1164.0517182350,6778.5733986179,-150.4991342954
0.0381157543,-5655.1399932811,-3737.4237404785,25253471.9273557998,1164.1157510281,6778.5650811583,-146.5396950372
0.0388227919,-5383.5640258959,-4118.9874321354,25721906.5032833293,1164.1799051724,6778.5558260599,-142.5802455060
0.0395298295,-5086.2879714200,-4480.8878779475,26190341.7504755631,1164.2441751212,6778.5456775734,-138.6207846318
0.0402368671,-4764.7308591065,-4821.3973395051,26658777.7290235236,1164.3085547201,6778.5346842152,-134.6613113989
0.0409439047,-4420.4276365411,-5138.8901716295,27127214.4955247566,1164.3730373345,6778.5228985352,-130.7018248503
0.0416509423,-4055.0218458918,-5431.8505832382,27595652.1028130800,1164.4376158305,6778.5103768664,-126.7423240931
0.0423579799,-3670.2577817054,-5698.8798743525,28064090.5997063555,1164.5022826046,6778.4971790559,-122.7828083018
0.0430650175,-3267.9721676052,-5938.7031146913,28532530.0307733417,1164.5670296252,6778.4833681796,-118.8232767230
0.0437720551,-2850.0853915464,-6150.1752319496,29000970.4361208752,1164.6318484582,6778.4690102406,-114.8637286786
0.0444790927,-2418.5923413946,-6332.2864806639,29469411.8512023389,1164.6967303716,6778.4541738549,-110.9041635693
0.0451861303,-1975.5528845047,-6484.1672655190,29937854.3066483065,1164.7616663426,6778.4389299235,-106.9445808772
0.0458931679,-1523.0820366861,-6605.0922960161,30406297.8281202167,1164.8266470172,6778.4233512940,-102.9849801683
0.0466002055,-1063.3398674275,-6694.4840526120,30874742.4361877628,1164.8916628882,6778.4075124130,-99.0253610949
0.0473072431,-598.5211895239,-6751.9155477123,31343188.1462305821,1164.9567042999,6778.3914889705,-95.0657233970
0.0480142807,-130.8450822879,-6777.1123682683,31811634.9683647193,1165.0217613801,6778.3753575392,-91.1060669033
0.0487213183,337.4557016706,-6769.9539901443,32280082.9073942080,1165.0868242644,6778.3591952079,-87.1463915326
0.0494283559,804.1453955410,-6730.4743579013,32748531.9627880529,1165.1518830247,6778.3430792146,-83.1866972939
0.0501353935,1266.9958924074,-6658.8617271454,33216982.1286826134,1165.2169277593,6778.3270865767,-79.2269842860
0.0508424311,1723.7973833813,-6555.4577701082,33685433.3939094916,1165.2819486633,6778.3112937239,-75.2672526978
0.0515494687,2172.3689089669,-6420.7559486479,34153885.7420487776,1165.3469359763,6778.2957761331,-71.3075028067
0.0522565063,2610.5687732641,-6255.3991623566,34622339.1515073106,1165.4118801653,6778.2806079678,-67.3477349778
0.0529635439,3036.3047712497,-6060.1766829278,35090793.5956216827,1165.4767718315,6778.2658617242,-63.3879496616
0.0536705815,3447.5441802678,-5836.0203893485,35559249.0427854955,1165.5416019261,6778.2516078845,-59.4281473924
0.0543776191,3842.3234679700,-5584.0003218257,36027705.4566001371,1165.6063615978,6778.2379145809,-55.4683287856
0.0550846567,4218.7576702972,-5305.3195756195,36496162.7960485220,1165.6710424274,6778.2248472696,-51.5084945344
0.0557916943,4575.0493946578,-5001.3085591136,36964621.0156909376,1165.7356362529,6778.2124684183,-47.5486454071
0.0564987319,4909.4974052450,-4673.4186435010,37433080.0658818632,1165.8001354188,6778.2008372082,-43.5887822427
0.0572057695,5220.5047494245,-4323.2152343760,37901539.8930070922,1165.8645326830,6778.1900092506,-39.6289059478
0.0579128071,5506.5863863126,-3952.3702982978,38370000.4397396296,1165.9288213328,6778.1800363217,-35.6690174915
0.0586198447,5766.3762810397,-3562.6543800023,38838461.6453134716,1165.9929950871,6778.1709661151,-31.7091179009
0.0593268823,5998.6339307473,-3155.9281483818,39306923.4458137006,1166.0570483096,6778.1628420141,-27.7492082567
0.0600339199,6202.2502910795,-2734.1335116165,39775385.7744817808,1166.1209758930,6778.1557028840,-23.7892896874
0.0607409575,6376.2530747972,-2299.2843439057,40243848.5620342717,1166.1847733408,6778.1495828870,-19.8293633644
0.0614479951,6519.8113971458,-1853.4568681146,40712311.7369937897,1166.2484367825,6778.1445113182,-15.8694304960
0.0621550327,6632.2397457313,-1398.7797403027,41180775.2260302603,1166.3119629212,6778.1405124665,-11.9094923220
0.0628620703,6713.0012558948,-937.4238835336,41649238.9543111920,1166.3753491938,6778.1376054979,-7.9495501075
0.0635691079,6761.7102758963,-471.5921195688,42117702.8458590731,1166.4385936968,6778.1358043640,-3.9896051371
0.0642761455,6778.1342096238,-3.5086480209,42586166.8239142150,1166.5016952381,6778.1351177358,-0.0296587083
